全國作圖
…
將所需資料匯進來

將我們整理出的資料會進來，像是各區家教平均薪資還有平均各區薪資所得

## Parsed with column specification:
## cols(
##   mean_salary = col_double(),
##   num = col_integer()
## )

## # A tibble: 23 x 4
##    countyid countyname mean_salary   num
##  *   <fctr>     <fctr>       <dbl> <dbl>
##  1 10008001     南投縣    464.2857     7
##  2 10020001     嘉義市    935.2941    17
##  3 10010001     嘉義縣    579.1667    12
##  4 10017001     基隆市    570.0000    10
##  5 10017002 基隆市(海)      0.0000     0
##  6 10002001     宜蘭縣    550.0000    11
##  7 10013001     屏東縣    615.3846    13
##  8 10007001     彰化縣    614.2857    21
##  9 65000001     新北市    659.7561   410
## 10 10018001     新竹市    721.0328    61
## # ... with 13 more rows
…
