雙北作圖
…
my_spdf@bbox

##        min       max
## x 118.1437 124.56115
## y  21.8956  26.38528

df1<-my_spdf[my_spdf@data$COUNTYID=="F", ]
df2<-my_spdf[my_spdf@data$COUNTYID=="A", ]
df3<-rbind(df1,df2)

as.tibble(df3@data)

## # A tibble: 41 x 7
##    TOWNID TOWNCODE COUNTYNAME TOWNNAME          TOWNENG COUNTYID
##  * <fctr>   <fctr>     <fctr>   <fctr>           <fctr>   <fctr>
##  1    F33 65000040     新北市   永和區  Yonghe District        F
##  2    F07 65000060     新北市   新店區 Xindian District        F
##  3    F19 65000130     新北市   土城區 Tucheng District        F
##  4    F04 65000140     新北市   蘆洲區  Luzhou District        F
##  5    F03 65000150     新北市   五股區    Wugu District        F
##  6    F10 65000200     新北市   坪林區 Pinglin District        F
##  7    F22 65000240     新北市   平溪區  Pingxi District        F
##  8    F11 65000290     新北市   烏來區   Wulai District        F
##  9    F27 65000100     新北市   淡水區 Danshui District        F
## 10    F21 65000120     新北市   瑞芳區 Ruifang District        F
## # ... with 31 more rows, and 1 more variables: COUNTYCODE <fctr>

將所需資料匯進來

將我們整理出的資料會進來，像是各區家教平均薪資還有平均各區薪資所得

## Parsed with column specification:
## cols(
##   salary = col_integer()
## )

## # A tibble: 41 x 8
##    TOWNID TOWNCODE COUNTYNAME TOWNNAME          TOWNENG COUNTYID
##  * <fctr>   <fctr>     <fctr>   <fctr>           <fctr>   <fctr>
##  1    F33 65000040     新北市   永和區  Yonghe District        F
##  2    F07 65000060     新北市   新店區 Xindian District        F
##  3    F19 65000130     新北市   土城區 Tucheng District        F
##  4    F04 65000140     新北市   蘆洲區  Luzhou District        F
##  5    F03 65000150     新北市   五股區    Wugu District        F
##  6    F10 65000200     新北市   坪林區 Pinglin District        F
##  7    F22 65000240     新北市   平溪區  Pingxi District        F
##  8    F11 65000290     新北市   烏來區   Wulai District        F
##  9    F27 65000100     新北市   淡水區 Danshui District        F
## 10    F21 65000120     新北市   瑞芳區 Ruifang District        F
## # ... with 31 more rows, and 2 more variables: COUNTYCODE <fctr>,
## #   salary <int>
…
